<svg xmlns="http://www.w3.org/2000/svg" width="179.187" height="417.092" viewBox="0 0 179.187 417.092">
  <metadata><?xpacket begin="﻿" id="W5M0MpCehiHzreSzNTczkc9d"?>
<x:xmpmeta xmlns:x="adobe:ns:meta/" x:xmptk="Adobe XMP Core 5.6-c140 79.160451, 2017/05/06-01:08:21        ">
   <rdf:RDF xmlns:rdf="http://www.w3.org/1999/02/22-rdf-syntax-ns#">
      <rdf:Description rdf:about=""/>
   </rdf:RDF>
</x:xmpmeta>
                                                                                                    
                                                                                                    
                                                                                                    
                                                                                                    
                                                                                                    
                                                                                                    
                                                                                                    
                                                                                                    
                                                                                                    
                                                                                                    
                                                                                                    
                                                                                                    
                                                                                                    
                                                                                                    
                                                                                                    
                                                                                                    
                                                                                                    
                                                                                                    
                                                                                                    
                                                                                                    
                           
<?xpacket end="w"?></metadata>
<defs>
    <style>
      .cls-1 {
        fill: #054288;
        fill-rule: evenodd;
        opacity: 0.28;
      }
    </style>
  </defs>
  <path class="cls-1" d="M430.08,1290.99v-377.9l6.051-1.4,4.654,0.931v2.792l36.771,1.861v-3.723l2.793-.93,19.549,1.4,4.655-1.862,7.912,3.258,19.084,0.931,5.12,1.861,2.793,3.723h6.051V921l7.912,0.465,1.862,1.861,18.153,0.931v-2.792h4.189l8.378,2.792,0.466,2.327h6.982l3.723,6.05,2.327,1.862,3.259,6.515,6.516,0.931V953.58l-1.862.93v4.654l1.862,0.931v5.585l-1.4,1.4v7.911l1.4,0.466v6.05l-1.862.931v8.377h1.4v6.98l-1.4.466v7.913l1.862,0.46v6.98l-1.862.47v7.91l1.862,0.47v6.51l-1.862.93v7.91l1.862,0.47v6.52l-1.862.93v7.91l1.862,0.46v6.52l-1.862.46v8.38l1.862,0.47v6.05l-1.862,1.39v7.45l1.862,0.46v6.52l-1.862.93v7.91l1.862,0.47v6.98l-1.862.46v7.92l1.862,0.46v6.98l-1.862.47v8.37l1.862,0.47v5.58l-1.862.93v8.38l1.862,0.47-0.465,6.51-1.4.93v7.91l1.862,0.47v6.05l-1.862.93v8.38l1.4,0.46v6.05l-1.4.93v8.38l1.862,0.47v6.05l-1.862.93v8.37l1.862,0.47v6.05l-1.862.93v8.38l1.862,0.46v6.52l-1.862.46v8.38l1.862,0.47v6.05l-1.862.46v8.84h1.862v6.98h-1.862v33.98l-1.862-2.33-0.931-1.86-3.723,1.4s-1.143-1.73-.931-2.33-0.466-4.65-.466-4.65l-2.327,1.39-4.189.93-1.862.93-0.931-4.19v-3.25l-1.4-.93-2.793.46-1.862,1.86-1.861,1.86-3.259-1.86-3.258-2.32-4.654.93-3.724,2.32s-0.7-2.78-.931-3.25-1.4-3.73-1.4-3.73l-2.793-1.86-2.327,1.86-1.4,2.8-2.792-.94s-3.154-2.26-3.724-1.86a28.382,28.382,0,0,1-2.793,1.4l-0.931,1.86-2.327,1.4-3.258.46s-2.57.04-3.258,0a9.662,9.662,0,0,0-2.793,0,11.129,11.129,0,0,1-2.793,0l-3.723-1.39-0.931-3.26-3.258-.93s-4.01-1.08-5.12-.93a24.151,24.151,0,0,0-4.655.46c-1.706.5-1.632,1.41-3.258,1.86a6.728,6.728,0,0,1-3.258,0,13.321,13.321,0,0,0-2.328,0,15.9,15.9,0,0,0-4.654,1.87c-0.783.58-1.394-1.16-2.793,1.39a15.271,15.271,0,0,0-1.4,2.79l-0.466,1.87,1.862,1.39-1.862,2.33-0.465,2.33,0.931,1.86,0.465,5.12-2.327.93-2.793-.47-1.4,1.4-0.466,4.19-2.327,1.39-0.465,4.19,1.4,2.33v3.72l-0.931,2.79,5.586,0.93v2.33a24.452,24.452,0,0,1-3.259,1.86,27.4,27.4,0,0,1-4.189,0s-3.224-1.59-3.723-2.32a13.008,13.008,0,0,0-1.862-1.87l-3.724-.46s-3.044-1.14-3.723-2.33-2.17-4.13-2.328-4.65-2.327-4.19-2.327-4.19l-3.258-2.79-7.913-3.26-5.12-2.79-5.585-1.4-2.793-3.26,0.931-4.65-1.862-3.72-1.862-1.87-4.189-1.86h-2.327l-1.4,2.33-1.862,1.86Z" transform="translate(-430.094 -911.688)"/>
</svg>
